^C:\USERS\FOKI\SOURCE\REPOS\CTCLIFETIMECICLE\CTCLIFETIMECICLE\X64\RELEASE\CIRCLE.OBJ|C:\USERS\FOKI\SOURCE\REPOS\CTCLIFETIMECICLE\CTCLIFETIMECICLE\X64\RELEASE\CTCLIFETIMECICLE.OBJ|C:\USERS\FOKI\SOURCE\REPOS\CTCLIFETIMECICLE\CTCLIFETIMECICLE\X64\RELEASE\CUBE.OBJ|C:\USERS\FOKI\SOURCE\REPOS\CTCLIFETIMECICLE\CTCLIFETIMECICLE\X64\RELEASE\DESTRUCTOR.OBJ|C:\USERS\FOKI\SOURCE\REPOS\CTCLIFETIMECICLE\CTCLIFETIMECICLE\X64\RELEASE\OBJECTINTERFACE.OBJ|C:\USERS\FOKI\SOURCE\REPOS\CTCLIFETIMECICLE\CTCLIFETIMECICLE\X64\RELEASE\SPAWNER.OBJ|C:\USERS\FOKI\SOURCE\REPOS\CTCLIFETIMECICLE\CTCLIFETIMECICLE\X64\RELEASE\STATISTIC.OBJ|C:\USERS\FOKI\SOURCE\REPOS\CTCLIFETIMECICLE\CTCLIFETIMECICLE\X64\RELEASE\TRIANGLE.OBJ
/OUT:"C:\USERS\FOKI\SOURCE\REPOS\CTCLIFETIMECICLE\X64\RELEASE\CTCLIFETIMECICLE.EXE" /INCREMENTAL:NO /NOLOGO KERNEL32.LIB USER32.LIB GDI32.LIB WINSPOOL.LIB COMDLG32.LIB ADVAPI32.LIB SHELL32.LIB OLE32.LIB OLEAUT32.LIB UUID.LIB ODBC32.LIB ODBCCP32.LIB /MANIFEST /MANIFESTUAC:"level='asInvoker' uiAccess='false'" /manifest:embed /DEBUG /PDB:"C:\USERS\FOKI\SOURCE\REPOS\CTCLIFETIMECICLE\X64\RELEASE\CTCLIFETIMECICLE.PDB" /SUBSYSTEM:CONSOLE /OPT:REF /OPT:ICF /LTCG:incremental /LTCGOUT:"X64\RELEASE\CTCLIFETIMECICLE.IOBJ" /TLBID:1 /DYNAMICBASE /NXCOMPAT /IMPLIB:"C:\USERS\FOKI\SOURCE\REPOS\CTCLIFETIMECICLE\X64\RELEASE\CTCLIFETIMECICLE.LIB" /MACHINE:X64 X64\RELEASE\CIRCLE.OBJ
X64\RELEASE\CTCLIFETIMECICLE.OBJ
X64\RELEASE\CUBE.OBJ
X64\RELEASE\DESTRUCTOR.OBJ
X64\RELEASE\OBJECTINTERFACE.OBJ
X64\RELEASE\STATISTIC.OBJ
X64\RELEASE\SPAWNER.OBJ
X64\RELEASE\TRIANGLE.OBJ
